prénom,nom,age,modèle voiture,km/ans
john,toto,10,peugeot,1000
jacques,ryan,1,Volvo,3400
toto ,john,34,Volvo,1234
emilie,de la forquette du blède prêt de la rivière,53,Renault,58392
géraldine,?,23,citroen,7500
Emanuel,Macron,47,NA,1 000 000
Renault,cinq,78,peugeot,29888
